"","Seq1","Seq10","Seq11","Seq12","Seq13","Seq14","Seq15","Seq16","Seq17","Seq2","Seq3","Seq4","Seq5","Seq6","Seq7","Seq8","Seq9"
"I",1,1,0,1,1,1,1,0,0,0,0,0,0,0,0,1,1
"II",0,0,0,0,0,0,0,0,0,1,1,1,0,0,0,0,0
"III",0,0,1,0,0,0,0,0,0,0,0,0,1,1,1,0,0
"IV",0,0,0,0,0,0,0,1,1,0,0,0,0,0,0,0,0
